Rapport ITV
…
Detractor

0.708

0.228

0.064

Detractor

The classification rules extracted by the system are 

Appendix:

## # A tibble: 32 x 5
##    term                                     estimate std.error statistic p.value
##    <chr>                                       <dbl>     <dbl>     <dbl>   <dbl>
##  1 (Intercept)                               -0.839       3.16   -0.265   0.795 
##  2 BeforeMeilleur que les tests que j'util~  -1.05        2.13   -0.494   0.630 
##  3 BeforePire que les tests que j'utilise ~  -0.0907      2.42   -0.0374  0.971 
##  4 BeforePlutt meilleur que les tests que~  -2.16        1.93   -1.12    0.283 
##  5 VaccineOui                                 2.24        1.29    1.73    0.107 
##  6 AfterMeilleur que les tests que j'utili~  -1.11        1.70   -0.653   0.525 
##  7 AfterPire que les tests que j'utilise a~  -3.71        3.06   -1.21    0.247 
##  8 AfterPlutt meilleur que les tests que ~   1.60        1.61    0.994   0.338 
##  9 AfterPlutt pire que les tests que j'ut~  -4.44        2.40   -1.85    0.0867
## 10 DuringMeilleur que les tests que j'util~  -2.55        3.51   -0.725   0.481 
## # ... with 22 more rows
…
